{"message":"","today":"2015-08-10","seleList":[{"typeName":null,"typeCode":"02","startTime":"2015-08-05 13:19:00","scope":"沈阳市【皇姑区】金山路、鸭绿江北街城建北尚小区部分居民楼","orgNo":"21401","orgName":null,"cityName":null,"lineName":"PMS_劳动变178北尚甲线,","countyName":null,"tgName":null,"tranName":null,"sdLineName":null,"sgpoweroffId":null,"streetName":null,"villageName":null,"roadName":null,"communityName":null,"nowTime":null,"poweroffId":2140120150805133,"subsName":"PMS_劳动66kV变电站,","pubTranName":null,"stopDate":"2015-08-05 22:00:00","poweroffArea":"劳动变北尚甲线所带北尚甲开闭站","poweroffReason":"由于劳动变北尚甲线至北尚甲开闭站之间电缆被挖坏造成停电","powerTime":"2015-08-05 18:29:00","powerComm":null,"subsNo":null,"lineNo":null,"tgNo":null,"infoStatus":"1","infoStatusName":null,"dateDay":null,"orgNos":null,"cityCode":null,"provinceCode":null},{"typeName":null,"typeCode":"02","startTime":"2015-08-05 11:01:00","scope":"沈阳市【新民市】陶屯镇：盛东饲料，正益板厂，大同采石场，亿方采石场，兴隆采石场，太平村，史窑村，前窑村，大黄沟村，小塔子村，大同村，袁家窝铺村，未荒地村，他拉铺子村","orgNo":"2140109","orgName":null,"cityName":null,"lineName":"PMS_陶屯变125新塔线,","countyName":null,"tgName":null,"tranName":null,"sdLineName":null,"sgpoweroffId":null,"streetName":null,"villageName":null,"roadName":null,"communityName":null,"nowTime":null,"poweroffId":2140120150805127,"subsName":"PMS_陶屯66kV变电站,","pubTranName":null,"stopDate":"2015-08-06 09:00:00","poweroffArea":"陶屯变新塔线新塔干1#-206#及左右分支。","poweroffReason":"陶屯变新塔线新塔干18#引流线断，造成停电。","powerTime":"2015-08-06 07:51:00","powerComm":null,"subsNo":null,"lineNo":null,"tgNo":null,"infoStatus":"1","infoStatusName":null,"dateDay":null,"orgNos":null,"cityCode":null,"provinceCode":null},{"typeName":null,"typeCode":"02","startTime":"2015-08-05 08:54:00","scope":"沈阳市【新民市】法哈牛镇：荣胜堡村、赖花堡村、前沙河村、后沙河村、小三家村、兴胜堡村、新安村。","orgNo":"2140109","orgName":null,"cityName":null,"lineName":"PMS_法哈牛变603新安线,","countyName":null,"tgName":null,"tranName":null,"sdLineName":null,"sgpoweroffId":null,"streetName":null,"villageName":null,"roadName":null,"communityName":null,"nowTime":null,"poweroffId":2140120150805113,"subsName":"PMS_法哈牛66kV变电站,","pubTranName":null,"stopDate":"2015-08-05 12:00:00","poweroffArea":"法哈牛变新安线新安干1#－89#及左右分支。","poweroffReason":"法哈牛变新安线新安干12#引线烧断，造成停电。","powerTime":"2015-08-05 10:02:00","powerComm":null,"subsNo":null,"lineNo":null,"tgNo":null,"infoStatus":"1","infoStatusName":null,"dateDay":null,"orgNos":null,"cityCode":null,"provinceCode":null},{"typeName":null,"typeCode":"02","startTime":"2015-08-05 08:50:55","scope":"沈阳市【东陵区】满堂乡下马村、奥林匹克花园、唯美十方、万科兰乔、兆隆","orgNo":"2140116","orgName":null,"cityName":null,"lineName":"PMS_中马变300满堂线,","countyName":null,"tgName":null,"tranName":null,"sdLineName":null,"sgpoweroffId":null,"streetName":null,"villageName":null,"roadName":null,"communityName":null,"nowTime":null,"poweroffId":2140120150805111,"subsName":"PMS_中马66kV变电站,","pubTranName":null,"stopDate":"2015-08-05 22:52:02","poweroffArea":"66KV中马变10KV满堂线所带满堂干3—133#杆及左右分支","poweroffReason":"10KV满堂线所带满堂干3#杆开关跳闸，造成停电","powerTime":"2015-08-05 11:05:25","powerComm":null,"subsNo":null,"lineNo":null,"tgNo":null,"infoStatus":"1","infoStatusName":null,"dateDay":null,"orgNos":null,"cityCode":null,"provinceCode":null},{"typeName":null,"typeCode":"02","startTime":"2015-08-05 08:50:36","scope":"沈阳市【东陵区】高坎镇下马村、七间房村、烟台村、琥珀湾、中旅国际小镇、方迪山庄、桑提亚娜","orgNo":"2140116","orgName":null,"cityName":null,"lineName":"PMS_中马变304疗养线,","countyName":null,"tgName":null,"tranName":null,"sdLineName":null,"sgpoweroffId":null,"streetName":null,"villageName":null,"roadName":null,"communityName":null,"nowTime":null,"poweroffId":2140120150805112,"subsName":"PMS_中马66kV变电站,","pubTranName":null,"stopDate":"2015-08-05 22:54:41","poweroffArea":"66KV中马变10KV疗养线所带疗养干42—133#杆及左右分支","poweroffReason":"10KV疗养线所带疗养干42#杆开关跳闸，造成停电","powerTime":"2015-08-05 11:05:56","powerComm":null,"subsNo":null,"lineNo":null,"tgNo":null,"infoStatus":"1","infoStatusName":null,"dateDay":null,"orgNos":null,"cityCode":null,"provinceCode":null},{"typeName":null,"typeCode":"01","startTime":"2015-08-05 08:30:00","scope":"沈阳市【铁西区】保工南街以东、景星南街以西、沈辽中路以北、南十三路以南及路官一街以东、艳粉街以西、沈辽中路以南、红粉路以北部分区域，工业大学换热站、工业大学机电厂（双电源一路）、齐贤二校、辽宁金戈、永善二期、聚贤雅苑、浅草绿阁二期、润城家园、兴华电器小区。","orgNo":"21401","orgName":null,"cityName":null,"lineName":"工农变552图强甲线,","countyName":null,"tgName":null,"tranName":null,"sdLineName":null,"sgpoweroffId":null,"streetName":null,"villageName":null,"roadName":null,"communityName":null,"nowTime":null,"poweroffId":2140120150727441,"subsName":"PMS_工农66kV变电站,","pubTranName":null,"stopDate":"2015-08-05 18:00:00","poweroffArea":"工农变图强甲线所带图强甲3开闭站、图齐分1-11#、四营分1-14#及左右分支","poweroffReason":"计划检修","powerTime":"2015-08-05 15:03:00","powerComm":null,"subsNo":null,"lineNo":null,"tgNo":null,"infoStatus":"1","infoStatusName":null,"dateDay":null,"orgNos":null,"cityCode":null,"provinceCode":null},{"typeName":null,"typeCode":"01","startTime":"2015-08-05 07:30:00","scope":"沈阳市【铁西区】兴华北街以西、景星北街以东、北二中路以南、北三中路以北部分区域，宜家家居（双电源一路）、顺峰餐饮、千缘新财富、千缘爱都、浅草绿阁六期小区。","orgNo":"21401","orgName":null,"cityName":null,"lineName":"劝工变072千缘线,","countyName":null,"tgName":null,"tranName":null,"sdLineName":null,"sgpoweroffId":null,"streetName":null,"villageName":null,"roadName":null,"communityName":null,"nowTime":null,"poweroffId":2140120150727440,"subsName":"劝工220kV变电站,","pubTranName":null,"stopDate":"2015-08-05 19:00:00","poweroffArea":"劝工变：千缘线所带千缘1开闭站、千缘2开闭站、千缘3开闭站及变电站","poweroffReason":"计划检修","powerTime":"2015-08-05 15:18:00","powerComm":null,"subsNo":null,"lineNo":null,"tgNo":null,"infoStatus":"1","infoStatusName":null,"dateDay":null,"orgNos":null,"cityCode":null,"provinceCode":null},{"typeName":null,"typeCode":"01","startTime":"2015-08-05 07:30:00","scope":"沈阳市【新民市】公主屯镇：黄山村、下洼子村、何屯村、黄岭村、孙屯村、八家子、水口村、吴长岗村、李窝卜村、关窝卜村、辽滨塔村、王学房村、石庙子村、五家子村、安乐村、孙窝卜村、公主屯村、河东村。\r\n沈阳市【新民市】新农村乡: 所有村屯、工厂、企事业单位及住宅小区。\r\n","orgNo":"2140109","orgName":null,"cityName":null,"lineName":"PMS_公主屯变166黄山线,PMS_公主屯变162辽滨线,PMS_公主屯变165新农线,PMS_公主屯变164石庙子线,","countyName":null,"tgName":null,"tranName":null,"sdLineName":null,"sgpoweroffId":null,"streetName":null,"villageName":null,"roadName":null,"communityName":null,"nowTime":null,"poweroffId":2140120150724334,"subsName":"PMS_公主屯66kV变电站,","pubTranName":null,"stopDate":"2015-08-05 21:00:00","poweroffArea":"公主屯变所带黄山线、新农线、石庙子线、辽滨线。","poweroffReason":"计划检修","powerTime":"2015-08-05 18:33:00","powerComm":null,"subsNo":null,"lineNo":null,"tgNo":null,"infoStatus":"1","infoStatusName":null,"dateDay":null,"orgNos":null,"cityCode":null,"provinceCode":null},{"typeName":null,"typeCode":"02","startTime":"2015-08-05 04:30:00","scope":"沈阳市【浑南新区（东陵区）】杨官街道马佳堡村 影响双电源用户：无 影响单电源用户：马佳堡机械加工厂、市政公司","orgNo":"2140116","orgName":null,"cityName":null,"lineName":"杨石线,","countyName":null,"tgName":null,"tranName":null,"sdLineName":null,"sgpoweroffId":null,"streetName":null,"villageName":null,"roadName":null,"communityName":null,"nowTime":null,"poweroffId":2140120150805103,"subsName":"PMS_杨官66kV变电站,","pubTranName":null,"stopDate":"2015-08-05 07:00:00","poweroffArea":"66KV杨官变10KV杨石线所带杨石干马佳堡分1—21#及左右分支","poweroffReason":"66KV杨官变10KV杨石线所带杨石干马佳堡分3#杆B相上引线断线，造成停电","powerTime":"2015-08-05 06:08:00","powerComm":null,"subsNo":null,"lineNo":null,"tgNo":null,"infoStatus":"1","infoStatusName":null,"dateDay":null,"orgNos":null,"cityCode":null,"provinceCode":null},{"typeName":null,"typeCode":"02","startTime":"2015-08-04 16:30:00","scope":"沈阳市【于洪区（皇姑区）】东起文大路，西至文大西路，造化镇、造化村、关家村、郭大桥村、广告学院、政逸实业、北大营农场、气体制造、广告学院、北都广告、沈阳金融学校","orgNo":"21401","orgName":null,"cityName":null,"lineName":"PMS_方溪变352造化乙线,PMS_方溪变350造化甲线,","countyName":null,"tgName":null,"tranName":null,"sdLineName":null,"sgpoweroffId":null,"streetName":null,"villageName":null,"roadName":null,"communityName":null,"nowTime":null,"poweroffId":2140120150804097,"subsName":"PMS_方溪66kV变电站,","pubTranName":null,"stopDate":"2015-08-04 19:00:00","poweroffArea":"方溪变造化甲、乙线沙坪分52-102#、郭家支1-56#及左右分支，","poweroffReason":"由于方溪变造化甲线沙坪分53#刀闸烧损，造成停电","powerTime":"2015-08-04 17:30:57","powerComm":null,"subsNo":null,"lineNo":null,"tgNo":null,"infoStatus":"1","infoStatusName":null,"dateDay":null,"orgNos":null,"cityCode":null,"provinceCode":null}],"pageModel":{"beginCount":0,"pageCount":10,"totalCount":37,"totalPage":4,"pageNow":1,"tableRows":0},"isExperi":"1"}